{
        "-KcFraG2N75wv2NlJDiP" : {
            "name" : "BodyBuilding",
            "description" : "fsdfdfsd"
        },
        "-KcFraG3nlhpxEiJVYUt" : {
            "name" : "Crossfit",
            "description" : "fsdfdfsd"
        },
        "-KcFraG3nlhpxEiJVYUu" : {
            "name" : "Olympic",
            "description" : "fsdfdfsd"
        },
        "-KcFraG3nlhpxEiJVYUv" : {
            "name" : "Calisthenic",
            "description" : "fsdfdfsd"
        },
        "-KcFraG3nlhpxEiJVYUw" : {
            "name" : "Powerlifting",
            "description" : "fsdfdfsd"
        },
        "-KcFraG3nlhpxEiJVYU2" : {
            "name" : "Powerlifting2",
            "description" : "fsdfdfsd"
        }

}