{
  "-KbyjAOfsdfsdgefMKlX" : {
    "comment" : "Was fantastic",
    "completed-time" : 1489047445190,
    "date" : 1489137782547,
    "isArchived" : false,
    "isComplete" : true,
    "isMetric" : false,
    "owner" : "1j1ptwXfBRe9CTwx3TjylGJwTbo2",
    "session-rating" : 5,
    "workout" : "-KcFlaFe8-OppCHDFOf"
  },
  "-KerWosTD7ujtNflkx-W" : {
    "comment" : "Was fantastic",
    "completedTime" : 1489055445190,
    "date" : 14891354692547,
    "isArchived" : false,
    "isComplete" : true,
    "isMetric" : false,
    "owner" : "1j1ptwXfBRe9CTwx3TjylGJwTbo2",
    "session-rating" : 5,
    "workout" : "-KcFlaFe8-OppCHDFOfs"
  }
}
