{
            "-KcLOZ4XtYWo9UIvyRiw":{
                "name" : "AMRAP",
                "description": "As many reps as possible"
            },
            "-KcLOZ4XtYWo9UIvyRix":{
                "name" : "AMRAP",
                "description": "As many reps as possible"
            },
            "-KcLOZ4XtYWo9UIvyRiy":{
                "name" : "AMRAP",
                "description": "As many reps as possible"
            },
            "-KcLOZ4Y0Y_CT-MR1L6f":{
                "name" : "AMRAP",
                "description": "As many reps as possible"
            },
            "-KcLOZ4Y0Y_CT-MR1L6g":{
                "name" : "AMRAP",
                "description": "As many reps as possible"
            }
}